350.0	1.915	0
350.501	1.915	0
351.001	1.914	0
351.502	1.914	0
352.002	1.913	0
352.503	1.913	0
353.003	1.913	0
353.504	1.912	0
354.004	1.912	0
354.505	1.911	0
355.005	1.911	0
355.506	1.911	0
356.006	1.91	0
356.507	1.91	0
357.007	1.909	0
357.508	1.909	0
358.008	1.908	0
358.509	1.908	0
359.009	1.908	0
359.51	1.907	0
360.01	1.907	0
360.511	1.906	0
361.011	1.906	0
361.512	1.906	0
362.012	1.905	0
362.513	1.905	0
363.013	1.905	0
363.514	1.904	0
364.014	1.904	0
364.515	1.903	0
365.015	1.903	0
365.516	1.903	0
366.016	1.902	0
366.517	1.902	0
367.017	1.902	0
367.518	1.901	0
368.018	1.901	0
368.519	1.9	0
369.019	1.9	0
369.52	1.9	0
370.02	1.899	0
370.521	1.899	0
371.021	1.899	0
371.522	1.898	0
372.022	1.898	0
372.523	1.898	0
373.023	1.897	0
373.524	1.897	0
374.024	1.896	0
374.525	1.896	0
375.025	1.896	0
375.526	1.895	0
376.026	1.895	0
376.527	1.895	0
377.027	1.894	0
377.528	1.894	0
378.028	1.894	0
378.529	1.893	0
379.029	1.893	0
379.53	1.893	0
380.03	1.892	0
380.531	1.892	0
381.031	1.892	0
381.532	1.891	0
382.032	1.891	0
382.533	1.891	0
383.033	1.89	0
383.534	1.89	0
384.034	1.89	0
384.535	1.889	0
385.035	1.889	0
385.536	1.889	0
386.036	1.888	0
386.537	1.888	0
387.037	1.888	0
387.538	1.887	0
388.038	1.887	0
388.539	1.887	0
389.039	1.887	0
389.54	1.886	0
390.04	1.886	0
390.541	1.886	0
391.041	1.885	0
391.542	1.885	0
392.042	1.885	0
392.543	1.884	0
393.043	1.884	0
393.544	1.884	0
394.044	1.884	0
394.545	1.883	0
395.045	1.883	0
395.546	1.883	0
396.046	1.882	0
396.547	1.882	0
397.047	1.882	0
397.548	1.881	0
398.048	1.881	0
398.549	1.881	0
399.049	1.881	0
399.55	1.88	0
400.05	1.88	0
400.551	1.88	0
401.051	1.879	0
401.552	1.879	0
402.052	1.879	0
402.553	1.879	0
403.053	1.878	0
403.554	1.878	0
404.054	1.878	0
404.555	1.878	0
405.055	1.877	0
405.556	1.877	0
406.056	1.877	0
406.557	1.876	0
407.057	1.876	0
407.558	1.876	0
408.058	1.876	0
408.559	1.875	0
409.059	1.875	0
409.56	1.875	0
410.06	1.875	0
410.561	1.874	0
411.061	1.874	0
411.562	1.874	0
412.062	1.874	0
412.563	1.873	0
413.063	1.873	0
413.564	1.873	0
414.064	1.872	0
414.565	1.872	0
415.065	1.872	0
415.566	1.872	0
416.066	1.871	0
416.567	1.871	0
417.067	1.871	0
417.568	1.871	0
418.068	1.87	0
418.569	1.87	0
419.069	1.87	0
419.57	1.87	0
420.07	1.869	0
420.571	1.869	0
421.071	1.869	0
421.572	1.869	0
422.072	1.869	0
422.573	1.868	0
423.073	1.868	0
423.574	1.868	0
424.074	1.868	0
424.575	1.867	0
425.075	1.867	0
425.576	1.867	0
426.076	1.867	0
426.577	1.866	0
427.077	1.866	0
427.578	1.866	0
428.078	1.866	0
428.579	1.865	0
429.079	1.865	0
429.58	1.865	0
430.08	1.865	0
430.581	1.865	0
431.081	1.864	0
431.582	1.864	0
432.082	1.864	0
432.583	1.864	0
433.083	1.863	0
433.584	1.863	0
434.084	1.863	0
434.585	1.863	0
435.085	1.863	0
435.586	1.862	0
436.086	1.862	0
436.587	1.862	0
437.087	1.862	0
437.588	1.861	0
438.088	1.861	0
438.589	1.861	0
439.089	1.861	0
439.59	1.861	0
440.09	1.86	0
440.591	1.86	0
441.091	1.86	0
441.592	1.86	0
442.092	1.86	0
442.593	1.859	0
443.093	1.859	0
443.594	1.859	0
444.094	1.859	0
444.595	1.859	0
445.095	1.858	0
445.596	1.858	0
446.096	1.858	0
446.597	1.858	0
447.097	1.858	0
447.598	1.857	0
448.098	1.857	0
448.599	1.857	0
449.099	1.857	0
449.6	1.857	0
450.1	1.856	0
450.601	1.856	0
451.101	1.856	0
451.602	1.856	0
452.102	1.856	0
452.603	1.855	0
453.103	1.855	0
453.604	1.855	0
454.104	1.855	0
454.605	1.855	0
455.105	1.854	0
455.606	1.854	0
456.106	1.854	0
456.607	1.854	0
457.107	1.854	0
457.608	1.853	0
458.108	1.853	0
458.609	1.853	0
459.109	1.853	0
459.61	1.853	0
460.11	1.853	0
460.611	1.852	0
461.111	1.852	0
461.612	1.852	0
462.112	1.852	0
462.613	1.852	0
463.113	1.851	0
463.614	1.851	0
464.114	1.851	0
464.615	1.851	0
465.115	1.851	0
465.616	1.851	0
466.116	1.85	0
466.617	1.85	0
467.117	1.85	0
467.618	1.85	0
468.118	1.85	0
468.619	1.849	0
469.119	1.849	0
469.62	1.849	0
470.12	1.849	0
470.621	1.849	0
471.121	1.849	0
471.622	1.848	0
472.122	1.848	0
472.623	1.848	0
473.123	1.848	0
473.624	1.848	0
474.124	1.848	0
474.625	1.847	0
475.125	1.847	0
475.626	1.847	0
476.126	1.847	0
476.627	1.847	0
477.127	1.847	0
477.628	1.846	0
478.128	1.846	0
478.629	1.846	0
479.129	1.846	0
479.63	1.846	0
480.13	1.846	0
480.631	1.845	0
481.131	1.845	0
481.632	1.845	0
482.132	1.845	0
482.633	1.845	0
483.133	1.845	0
483.634	1.845	0
484.134	1.844	0
484.635	1.844	0
485.135	1.844	0
485.636	1.844	0
486.136	1.844	0
486.637	1.844	0
487.137	1.843	0
487.638	1.843	0
488.138	1.843	0
488.639	1.843	0
489.139	1.843	0
489.64	1.843	0
490.14	1.843	0
490.641	1.842	0
491.141	1.842	0
491.642	1.842	0
492.142	1.842	0
492.643	1.842	0
493.143	1.842	0
493.644	1.841	0
494.144	1.841	0
494.645	1.841	0
495.145	1.841	0
495.646	1.841	0
496.146	1.841	0
496.647	1.841	0
497.147	1.84	0
497.648	1.84	0
498.148	1.84	0
498.649	1.84	0
499.149	1.84	0
499.65	1.84	0
500.15	1.84	0
500.651	1.839	0
501.151	1.839	0
501.652	1.839	0
502.152	1.839	0
502.653	1.839	0
503.153	1.839	0
503.654	1.839	0
504.154	1.838	0
504.655	1.838	0
505.155	1.838	0
505.656	1.838	0
506.156	1.838	0
506.657	1.838	0
507.157	1.838	0
507.658	1.837	0
508.158	1.837	0
508.659	1.837	0
509.159	1.837	0
509.66	1.837	0
510.16	1.837	0
510.661	1.837	0
511.161	1.837	0
511.662	1.836	0
512.162	1.836	0
512.663	1.836	0
513.163	1.836	0
513.664	1.836	0
514.164	1.836	0
514.665	1.836	0
515.165	1.835	0
515.666	1.835	0
516.166	1.835	0
516.667	1.835	0
517.167	1.835	0
517.668	1.835	0
518.168	1.835	0
518.669	1.835	0
519.169	1.834	0
519.67	1.834	0
520.17	1.834	0
520.671	1.834	0
521.171	1.834	0
521.672	1.834	0
522.172	1.834	0
522.673	1.834	0
523.173	1.833	0
523.674	1.833	0
524.174	1.833	0
524.675	1.833	0
525.175	1.833	0
525.676	1.833	0
526.176	1.833	0
526.677	1.833	0
527.177	1.832	0
527.678	1.832	0
528.178	1.832	0
528.679	1.832	0
529.179	1.832	0
529.68	1.832	0
530.18	1.832	0
530.681	1.832	0
531.181	1.832	0
531.682	1.831	0
532.182	1.831	0
532.683	1.831	0
533.183	1.831	0
533.684	1.831	0
534.184	1.831	0
534.685	1.831	0
535.185	1.831	0
535.686	1.83	0
536.186	1.83	0
536.687	1.83	0
537.187	1.83	0
537.688	1.83	0
538.188	1.83	0
538.689	1.83	0
539.189	1.83	0
539.69	1.83	0
540.19	1.829	0
540.691	1.829	0
541.191	1.829	0
541.692	1.829	0
542.192	1.829	0
542.693	1.829	0
543.193	1.829	0
543.694	1.829	0
544.194	1.829	0
544.695	1.828	0
545.195	1.828	0
545.696	1.828	0
546.196	1.828	0
546.697	1.828	0
547.197	1.828	0
547.698	1.828	0
548.198	1.828	0
548.699	1.828	0
549.199	1.827	0
549.7	1.827	0
550.2	1.827	0
550.701	1.827	0
551.201	1.827	0
551.702	1.827	0
552.202	1.827	0
552.703	1.827	0
553.203	1.827	0
553.704	1.827	0
554.204	1.826	0
554.705	1.826	0
555.205	1.826	0
555.706	1.826	0
556.206	1.826	0
556.707	1.826	0
557.207	1.826	0
557.708	1.826	0
558.208	1.826	0
558.709	1.826	0
559.209	1.825	0
559.71	1.825	0
560.21	1.825	0
560.711	1.825	0
561.211	1.825	0
561.712	1.825	0
562.212	1.825	0
562.713	1.825	0
563.213	1.825	0
563.714	1.825	0
564.214	1.824	0
564.715	1.824	0
565.215	1.824	0
565.716	1.824	0
566.216	1.824	0
566.717	1.824	0
567.217	1.824	0
567.718	1.824	0
568.218	1.824	0
568.719	1.824	0
569.219	1.823	0
569.72	1.823	0
570.22	1.823	0
570.721	1.823	0
571.221	1.823	0
571.722	1.823	0
572.222	1.823	0
572.723	1.823	0
573.223	1.823	0
573.724	1.823	0
574.224	1.823	0
574.725	1.822	0
575.225	1.822	0
575.726	1.822	0
576.226	1.822	0
576.727	1.822	0
577.227	1.822	0
577.728	1.822	0
578.228	1.822	0
578.729	1.822	0
579.229	1.822	0
579.73	1.822	0
580.23	1.821	0
580.731	1.821	0
581.231	1.821	0
581.732	1.821	0
582.232	1.821	0
582.733	1.821	0
583.233	1.821	0
583.734	1.821	0
584.234	1.821	0
584.735	1.821	0
585.235	1.821	0
585.736	1.82	0
586.236	1.82	0
586.737	1.82	0
587.237	1.82	0
587.738	1.82	0
588.238	1.82	0
588.739	1.82	0
589.239	1.82	0
589.74	1.82	0
590.24	1.82	0
590.741	1.82	0
591.241	1.819	0
591.742	1.819	0
592.242	1.819	0
592.743	1.819	0
593.243	1.819	0
593.744	1.819	0
594.244	1.819	0
594.745	1.819	0
595.245	1.819	0
595.746	1.819	0
596.246	1.819	0
596.747	1.819	0
597.247	1.818	0
597.748	1.818	0
598.248	1.818	0
598.749	1.818	0
599.249	1.818	0
599.75	1.818	0
600.25	1.818	0
600.751	1.818	0
601.251	1.818	0
601.752	1.818	0
602.252	1.818	0
602.753	1.818	0
603.253	1.818	0
603.754	1.817	0
604.254	1.817	0
604.755	1.817	0
605.255	1.817	0
605.756	1.817	0
606.256	1.817	0
606.757	1.817	0
607.257	1.817	0
607.758	1.817	0
608.258	1.817	0
608.759	1.817	0
609.259	1.817	0
609.76	1.816	0
610.26	1.816	0
610.761	1.816	0
611.261	1.816	0
611.762	1.816	0
612.262	1.816	0
612.763	1.816	0
613.263	1.816	0
613.764	1.816	0
614.264	1.816	0
614.765	1.816	0
615.265	1.816	0
615.766	1.816	0
616.266	1.815	0
616.767	1.815	0
617.267	1.815	0
617.768	1.815	0
618.268	1.815	0
618.769	1.815	0
619.269	1.815	0
619.77	1.815	0
620.27	1.815	0
620.771	1.815	0
621.271	1.815	0
621.772	1.815	0
622.272	1.815	0
622.773	1.815	0
623.273	1.814	0
623.774	1.814	0
624.274	1.814	0
624.775	1.814	0
625.275	1.814	0
625.776	1.814	0
626.276	1.814	0
626.777	1.814	0
627.277	1.814	0
627.778	1.814	0
628.278	1.814	0
628.779	1.814	0
629.279	1.814	0
629.78	1.814	0
630.28	1.813	0
630.781	1.813	0
631.281	1.813	0
631.782	1.813	0
632.282	1.813	0
632.783	1.813	0
633.283	1.813	0
633.784	1.813	0
634.284	1.813	0
634.785	1.813	0
635.285	1.813	0
635.786	1.813	0
636.286	1.813	0
636.787	1.813	0
637.287	1.813	0
637.788	1.812	0
638.288	1.812	0
638.789	1.812	0
639.289	1.812	0
639.79	1.812	0
640.29	1.812	0
640.791	1.812	0
641.291	1.812	0
641.792	1.812	0
642.292	1.812	0
642.793	1.812	0
643.293	1.812	0
643.794	1.812	0
644.294	1.812	0
644.795	1.812	0
645.295	1.811	0
645.796	1.811	0
646.296	1.811	0
646.797	1.811	0
647.297	1.811	0
647.798	1.811	0
648.298	1.811	0
648.799	1.811	0
649.299	1.811	0
649.8	1.811	0
650.3	1.811	0
650.801	1.811	0
651.301	1.811	0
651.802	1.811	0
652.302	1.811	0
652.803	1.81	0
653.303	1.81	0
653.804	1.81	0
654.304	1.81	0
654.805	1.81	0
655.305	1.81	0
655.806	1.81	0
656.306	1.81	0
656.807	1.81	0
657.307	1.81	0
657.808	1.81	0
658.308	1.81	0
658.809	1.81	0
659.309	1.81	0
659.81	1.81	0
660.31	1.81	0
660.811	1.809	0
661.311	1.809	0
661.812	1.809	0
662.312	1.809	0
662.813	1.809	0
663.313	1.809	0
663.814	1.809	0
664.314	1.809	0
664.815	1.809	0
665.315	1.809	0
665.816	1.809	0
666.316	1.809	0
666.817	1.809	0
667.317	1.809	0
667.818	1.809	0
668.318	1.809	0
668.819	1.809	0
669.319	1.808	0
669.82	1.808	0
670.32	1.808	0
670.821	1.808	0
671.321	1.808	0
671.822	1.808	0
672.322	1.808	0
672.823	1.808	0
673.323	1.808	0
673.824	1.808	0
674.324	1.808	0
674.825	1.808	0
675.325	1.808	0
675.826	1.808	0
676.326	1.808	0
676.827	1.808	0
677.327	1.808	0
677.828	1.808	0
678.328	1.807	0
678.829	1.807	0
679.329	1.807	0
679.83	1.807	0
680.33	1.807	0
680.831	1.807	0
681.331	1.807	0
681.832	1.807	0
682.332	1.807	0
682.833	1.807	0
683.333	1.807	0
683.834	1.807	0
684.334	1.807	0
684.835	1.807	0
685.335	1.807	0
685.836	1.807	0
686.336	1.807	0
686.837	1.807	0
687.337	1.806	0
687.838	1.806	0
688.338	1.806	0
688.839	1.806	0
689.339	1.806	0
689.84	1.806	0
690.34	1.806	0
690.841	1.806	0
691.341	1.806	0
691.842	1.806	0
692.342	1.806	0
692.843	1.806	0
693.343	1.806	0
693.844	1.806	0
694.344	1.806	0
694.845	1.806	0
695.345	1.806	0
695.846	1.806	0
696.346	1.806	0
696.847	1.805	0
697.347	1.805	0
697.848	1.805	0
698.348	1.805	0
698.849	1.805	0
699.349	1.805	0
699.85	1.805	0
700.35	1.805	0
700.851	1.805	0
701.351	1.805	0
701.852	1.805	0
702.352	1.805	0
702.853	1.805	0
703.353	1.805	0
703.854	1.805	0
704.354	1.805	0
704.855	1.805	0
705.355	1.805	0
705.856	1.805	0
706.356	1.805	0
706.857	1.804	0
707.357	1.804	0
707.858	1.804	0
708.358	1.804	0
708.859	1.804	0
709.359	1.804	0
709.86	1.804	0
710.36	1.804	0
710.861	1.804	0
711.361	1.804	0
711.862	1.804	0
712.362	1.804	0
712.863	1.804	0
713.363	1.804	0
713.864	1.804	0
714.364	1.804	0
714.865	1.804	0
715.365	1.804	0
715.866	1.804	0
716.366	1.804	0
716.867	1.804	0
717.367	1.803	0
717.868	1.803	0
718.368	1.803	0
718.869	1.803	0
719.369	1.803	0
719.87	1.803	0
720.37	1.803	0
720.871	1.803	0
721.371	1.803	0
721.872	1.803	0
722.372	1.803	0
722.873	1.803	0
723.373	1.803	0
723.874	1.803	0
724.374	1.803	0
724.875	1.803	0
725.375	1.803	0
725.876	1.803	0
726.376	1.803	0
726.877	1.803	0
727.377	1.803	0
727.878	1.802	0
728.378	1.802	0
728.879	1.802	0
729.379	1.802	0
729.88	1.802	0
730.38	1.802	0
730.881	1.802	0
731.381	1.802	0
731.882	1.802	0
732.382	1.802	0
732.883	1.802	0
733.383	1.802	0
733.884	1.802	0
734.384	1.802	0
734.885	1.802	0
735.385	1.802	0
735.886	1.802	0
736.386	1.802	0
736.887	1.802	0
737.387	1.802	0
737.888	1.802	0
738.388	1.802	0
738.889	1.802	0
739.389	1.801	0
739.89	1.801	0
740.39	1.801	0
740.891	1.801	0
741.391	1.801	0
741.892	1.801	0
742.392	1.801	0
742.893	1.801	0
743.393	1.801	0
743.894	1.801	0
744.394	1.801	0
744.895	1.801	0
745.395	1.801	0
745.896	1.801	0
746.396	1.801	0
746.897	1.801	0
747.397	1.801	0
747.898	1.801	0
748.398	1.801	0
748.899	1.801	0
749.399	1.801	0
749.9	1.801	0
750.4	1.801	0
750.901	1.801	0
751.401	1.8	0
751.902	1.8	0
752.402	1.8	0
752.903	1.8	0
753.403	1.8	0
753.904	1.8	0
754.404	1.8	0
754.905	1.8	0
755.405	1.8	0
755.906	1.8	0
756.406	1.8	0
756.907	1.8	0
757.407	1.8	0
757.908	1.8	0
758.408	1.8	0
758.909	1.8	0
759.409	1.8	0
759.91	1.8	0
760.41	1.8	0
760.911	1.8	0
761.411	1.8	0
761.912	1.8	0
762.412	1.8	0
762.913	1.8	0
763.413	1.8	0
763.914	1.799	0
764.414	1.799	0
764.915	1.799	0
765.415	1.799	0
765.916	1.799	0
766.416	1.799	0
766.917	1.799	0
767.417	1.799	0
767.918	1.799	0
768.418	1.799	0
768.919	1.799	0
769.419	1.799	0
769.92	1.799	0
770.42	1.799	0
770.921	1.799	0
771.421	1.799	0
771.922	1.799	0
772.422	1.799	0
772.923	1.799	0
773.423	1.799	0
773.924	1.799	0
774.424	1.799	0
774.925	1.799	0
775.425	1.799	0
775.926	1.799	0
776.426	1.799	0
776.927	1.798	0
777.427	1.798	0
777.928	1.798	0
778.428	1.798	0
778.929	1.798	0
779.429	1.798	0
779.93	1.798	0
780.43	1.798	0
780.931	1.798	0
781.431	1.798	0
781.932	1.798	0
782.432	1.798	0
782.933	1.798	0
783.433	1.798	0
783.934	1.798	0
784.434	1.798	0
784.935	1.798	0
785.435	1.798	0
785.936	1.798	0
786.436	1.798	0
786.937	1.798	0
787.437	1.798	0
787.938	1.798	0
788.438	1.798	0
788.939	1.798	0
789.439	1.798	0
789.94	1.798	0
790.44	1.798	0
790.941	1.797	0
791.441	1.797	0
791.942	1.797	0
792.442	1.797	0
792.943	1.797	0
793.443	1.797	0
793.944	1.797	0
794.444	1.797	0
794.945	1.797	0
795.445	1.797	0
795.946	1.797	0
796.446	1.797	0
796.947	1.797	0
797.447	1.797	0
797.948	1.797	0
798.448	1.797	0
798.949	1.797	0
799.449	1.797	0
799.95	1.797	0
800.45	1.797	0
800.951	1.797	0
801.451	1.797	0
801.952	1.797	0
802.452	1.797	0
802.953	1.797	0
803.453	1.797	0
803.954	1.797	0
804.454	1.797	0
804.955	1.797	0
805.455	1.796	0
805.956	1.796	0
806.456	1.796	0
806.957	1.796	0
807.457	1.796	0
807.958	1.796	0
808.458	1.796	0
808.959	1.796	0
809.459	1.796	0
809.96	1.796	0
810.46	1.796	0
810.961	1.796	0
811.461	1.796	0
811.962	1.796	0
812.462	1.796	0
812.963	1.796	0
813.463	1.796	0
813.964	1.796	0
814.464	1.796	0
814.965	1.796	0
815.465	1.796	0
815.966	1.796	0
816.466	1.796	0
816.967	1.796	0
817.467	1.796	0
817.968	1.796	0
818.468	1.796	0
818.969	1.796	0
819.469	1.796	0
819.97	1.796	0
820.47	1.796	0
820.971	1.795	0
821.471	1.795	0
821.972	1.795	0
822.472	1.795	0
822.973	1.795	0
823.473	1.795	0
823.974	1.795	0
824.474	1.795	0
824.975	1.795	0
825.475	1.795	0
825.976	1.795	0
826.476	1.795	0
826.977	1.795	0
827.477	1.795	0
827.978	1.795	0
828.478	1.795	0
828.979	1.795	0
829.479	1.795	0
829.98	1.795	0
830.48	1.795	0
830.981	1.795	0
831.481	1.795	0
831.982	1.795	0
832.482	1.795	0
832.983	1.795	0
833.483	1.795	0
833.984	1.795	0
834.484	1.795	0
834.985	1.795	0
835.485	1.795	0
835.986	1.795	0
836.486	1.795	0
836.987	1.795	0
837.487	1.794	0
837.988	1.794	0
838.488	1.794	0
838.989	1.794	0
839.489	1.794	0
839.99	1.794	0
840.49	1.794	0
840.991	1.794	0
841.491	1.794	0
841.992	1.794	0
842.492	1.794	0
842.993	1.794	0
843.493	1.794	0
843.994	1.794	0
844.494	1.794	0
844.995	1.794	0
845.495	1.794	0
845.996	1.794	0
846.496	1.794	0
846.997	1.794	0
847.497	1.794	0
847.998	1.794	0
848.498	1.794	0
848.999	1.794	0
849.499	1.794	0
850.0	1.794	0
