350.0	1.872	0
350.501	1.872	0
351.001	1.872	0
351.502	1.872	0
352.002	1.872	0
352.503	1.871	0
353.003	1.871	0
353.504	1.871	0
354.004	1.871	0
354.505	1.871	0
355.005	1.87	0
355.506	1.87	0
356.006	1.87	0
356.507	1.87	0
357.007	1.87	0
357.508	1.87	0
358.008	1.869	0
358.509	1.869	0
359.009	1.869	0
359.51	1.869	0
360.01	1.869	0
360.511	1.868	0
361.011	1.868	0
361.512	1.868	0
362.012	1.868	0
362.513	1.868	0
363.013	1.867	0
363.514	1.867	0
364.014	1.867	0
364.515	1.867	0
365.015	1.867	0
365.516	1.866	0
366.016	1.866	0
366.517	1.866	0
367.017	1.866	0
367.518	1.866	0
368.018	1.866	0
368.519	1.865	0
369.019	1.865	0
369.52	1.865	0
370.02	1.865	0
370.521	1.865	0
371.021	1.864	0
371.522	1.864	0
372.022	1.864	0
372.523	1.864	0
373.023	1.864	0
373.524	1.864	0
374.024	1.863	0
374.525	1.863	0
375.025	1.863	0
375.526	1.863	0
376.026	1.863	0
376.527	1.862	0
377.027	1.862	0
377.528	1.862	0
378.028	1.862	0
378.529	1.862	0
379.029	1.862	0
379.53	1.861	0
380.03	1.861	0
380.531	1.861	0
381.031	1.861	0
381.532	1.861	0
382.032	1.86	0
382.533	1.86	0
383.033	1.86	0
383.534	1.86	0
384.034	1.86	0
384.535	1.86	0
385.035	1.859	0
385.536	1.859	0
386.036	1.859	0
386.537	1.859	0
387.037	1.859	0
387.538	1.859	0
388.038	1.858	0
388.539	1.858	0
389.039	1.858	0
389.54	1.858	0
390.04	1.858	0
390.541	1.858	0
391.041	1.857	0
391.542	1.857	0
392.042	1.857	0
392.543	1.857	0
393.043	1.857	0
393.544	1.857	0
394.044	1.856	0
394.545	1.856	0
395.045	1.856	0
395.546	1.856	0
396.046	1.856	0
396.547	1.856	0
397.047	1.855	0
397.548	1.855	0
398.048	1.855	0
398.549	1.855	0
399.049	1.855	0
399.55	1.855	0
400.05	1.854	0
400.551	1.854	0
401.051	1.854	0
401.552	1.854	0
402.052	1.854	0
402.553	1.854	0
403.053	1.853	0
403.554	1.853	0
404.054	1.853	0
404.555	1.853	0
405.055	1.853	0
405.556	1.853	0
406.056	1.852	0
406.557	1.852	0
407.057	1.852	0
407.558	1.852	0
408.058	1.852	0
408.559	1.852	0
409.059	1.852	0
409.56	1.851	0
410.06	1.851	0
410.561	1.851	0
411.061	1.851	0
411.562	1.851	0
412.062	1.851	0
412.563	1.85	0
413.063	1.85	0
413.564	1.85	0
414.064	1.85	0
414.565	1.85	0
415.065	1.85	0
415.566	1.849	0
416.066	1.849	0
416.567	1.849	0
417.067	1.849	0
417.568	1.849	0
418.068	1.849	0
418.569	1.849	0
419.069	1.848	0
419.57	1.848	0
420.07	1.848	0
420.571	1.848	0
421.071	1.848	0
421.572	1.848	0
422.072	1.848	0
422.573	1.847	0
423.073	1.847	0
423.574	1.847	0
424.074	1.847	0
424.575	1.847	0
425.075	1.847	0
425.576	1.847	0
426.076	1.846	0
426.577	1.846	0
427.077	1.846	0
427.578	1.846	0
428.078	1.846	0
428.579	1.846	0
429.079	1.845	0
429.58	1.845	0
430.08	1.845	0
430.581	1.845	0
431.081	1.845	0
431.582	1.845	0
432.082	1.845	0
432.583	1.844	0
433.083	1.844	0
433.584	1.844	0
434.084	1.844	0
434.585	1.844	0
435.085	1.844	0
435.586	1.844	0
436.086	1.844	0
436.587	1.843	0
437.087	1.843	0
437.588	1.843	0
438.088	1.843	0
438.589	1.843	0
439.089	1.843	0
439.59	1.843	0
440.09	1.842	0
440.591	1.842	0
441.091	1.842	0
441.592	1.842	0
442.092	1.842	0
442.593	1.842	0
443.093	1.842	0
443.594	1.841	0
444.094	1.841	0
444.595	1.841	0
445.095	1.841	0
445.596	1.841	0
446.096	1.841	0
446.597	1.841	0
447.097	1.841	0
447.598	1.84	0
448.098	1.84	0
448.599	1.84	0
449.099	1.84	0
449.6	1.84	0
450.1	1.84	0
450.601	1.84	0
451.101	1.839	0
451.602	1.839	0
452.102	1.839	0
452.603	1.839	0
453.103	1.839	0
453.604	1.839	0
454.104	1.839	0
454.605	1.839	0
455.105	1.838	0
455.606	1.838	0
456.106	1.838	0
456.607	1.838	0
457.107	1.838	0
457.608	1.838	0
458.108	1.838	0
458.609	1.838	0
459.109	1.837	0
459.61	1.837	0
460.11	1.837	0
460.611	1.837	0
461.111	1.837	0
461.612	1.837	0
462.112	1.837	0
462.613	1.837	0
463.113	1.836	0
463.614	1.836	0
464.114	1.836	0
464.615	1.836	0
465.115	1.836	0
465.616	1.836	0
466.116	1.836	0
466.617	1.836	0
467.117	1.835	0
467.618	1.835	0
468.118	1.835	0
468.619	1.835	0
469.119	1.835	0
469.62	1.835	0
470.12	1.835	0
470.621	1.835	0
471.121	1.835	0
471.622	1.834	0
472.122	1.834	0
472.623	1.834	0
473.123	1.834	0
473.624	1.834	0
474.124	1.834	0
474.625	1.834	0
475.125	1.834	0
475.626	1.833	0
476.126	1.833	0
476.627	1.833	0
477.127	1.833	0
477.628	1.833	0
478.128	1.833	0
478.629	1.833	0
479.129	1.833	0
479.63	1.833	0
480.13	1.832	0
480.631	1.832	0
481.131	1.832	0
481.632	1.832	0
482.132	1.832	0
482.633	1.832	0
483.133	1.832	0
483.634	1.832	0
484.134	1.832	0
484.635	1.831	0
485.135	1.831	0
485.636	1.831	0
486.136	1.831	0
486.637	1.831	0
487.137	1.831	0
487.638	1.831	0
488.138	1.831	0
488.639	1.831	0
489.139	1.83	0
489.64	1.83	0
490.14	1.83	0
490.641	1.83	0
491.141	1.83	0
491.642	1.83	0
492.142	1.83	0
492.643	1.83	0
493.143	1.83	0
493.644	1.829	0
494.144	1.829	0
494.645	1.829	0
495.145	1.829	0
495.646	1.829	0
496.146	1.829	0
496.647	1.829	0
497.147	1.829	0
497.648	1.829	0
498.148	1.829	0
498.649	1.828	0
499.149	1.828	0
499.65	1.828	0
500.15	1.828	0
500.651	1.828	0
501.151	1.828	0
501.652	1.828	0
502.152	1.828	0
502.653	1.828	0
503.153	1.828	0
503.654	1.827	0
504.154	1.827	0
504.655	1.827	0
505.155	1.827	0
505.656	1.827	0
506.156	1.827	0
506.657	1.827	0
507.157	1.827	0
507.658	1.827	0
508.158	1.827	0
508.659	1.826	0
509.159	1.826	0
509.66	1.826	0
510.16	1.826	0
510.661	1.826	0
511.161	1.826	0
511.662	1.826	0
512.162	1.826	0
512.663	1.826	0
513.163	1.826	0
513.664	1.825	0
514.164	1.825	0
514.665	1.825	0
515.165	1.825	0
515.666	1.825	0
516.166	1.825	0
516.667	1.825	0
517.167	1.825	0
517.668	1.825	0
518.168	1.825	0
518.669	1.824	0
519.169	1.824	0
519.67	1.824	0
520.17	1.824	0
520.671	1.824	0
521.171	1.824	0
521.672	1.824	0
522.172	1.824	0
522.673	1.824	0
523.173	1.824	0
523.674	1.824	0
524.174	1.823	0
524.675	1.823	0
525.175	1.823	0
525.676	1.823	0
526.176	1.823	0
526.677	1.823	0
527.177	1.823	0
527.678	1.823	0
528.178	1.823	0
528.679	1.823	0
529.179	1.823	0
529.68	1.822	0
530.18	1.822	0
530.681	1.822	0
531.181	1.822	0
531.682	1.822	0
532.182	1.822	0
532.683	1.822	0
533.183	1.822	0
533.684	1.822	0
534.184	1.822	0
534.685	1.822	0
535.185	1.821	0
535.686	1.821	0
536.186	1.821	0
536.687	1.821	0
537.187	1.821	0
537.688	1.821	0
538.188	1.821	0
538.689	1.821	0
539.189	1.821	0
539.69	1.821	0
540.19	1.821	0
540.691	1.821	0
541.191	1.82	0
541.692	1.82	0
542.192	1.82	0
542.693	1.82	0
543.193	1.82	0
543.694	1.82	0
544.194	1.82	0
544.695	1.82	0
545.195	1.82	0
545.696	1.82	0
546.196	1.82	0
546.697	1.82	0
547.197	1.819	0
547.698	1.819	0
548.198	1.819	0
548.699	1.819	0
549.199	1.819	0
549.7	1.819	0
550.2	1.819	0
550.701	1.819	0
551.201	1.819	0
551.702	1.819	0
552.202	1.819	0
552.703	1.819	0
553.203	1.818	0
553.704	1.818	0
554.204	1.818	0
554.705	1.818	0
555.205	1.818	0
555.706	1.818	0
556.206	1.818	0
556.707	1.818	0
557.207	1.818	0
557.708	1.818	0
558.208	1.818	0
558.709	1.818	0
559.209	1.817	0
559.71	1.817	0
560.21	1.817	0
560.711	1.817	0
561.211	1.817	0
561.712	1.817	0
562.212	1.817	0
562.713	1.817	0
563.213	1.817	0
563.714	1.817	0
564.214	1.817	0
564.715	1.817	0
565.215	1.817	0
565.716	1.816	0
566.216	1.816	0
566.717	1.816	0
567.217	1.816	0
567.718	1.816	0
568.218	1.816	0
568.719	1.816	0
569.219	1.816	0
569.72	1.816	0
570.22	1.816	0
570.721	1.816	0
571.221	1.816	0
571.722	1.816	0
572.222	1.815	0
572.723	1.815	0
573.223	1.815	0
573.724	1.815	0
574.224	1.815	0
574.725	1.815	0
575.225	1.815	0
575.726	1.815	0
576.226	1.815	0
576.727	1.815	0
577.227	1.815	0
577.728	1.815	0
578.228	1.815	0
578.729	1.815	0
579.229	1.814	0
579.73	1.814	0
580.23	1.814	0
580.731	1.814	0
581.231	1.814	0
581.732	1.814	0
582.232	1.814	0
582.733	1.814	0
583.233	1.814	0
583.734	1.814	0
584.234	1.814	0
584.735	1.814	0
585.235	1.814	0
585.736	1.814	0
586.236	1.813	0
586.737	1.813	0
587.237	1.813	0
587.738	1.813	0
588.238	1.813	0
588.739	1.813	0
589.239	1.813	0
589.74	1.813	0
590.24	1.813	0
590.741	1.813	0
591.241	1.813	0
591.742	1.813	0
592.242	1.813	0
592.743	1.813	0
593.243	1.813	0
593.744	1.812	0
594.244	1.812	0
594.745	1.812	0
595.245	1.812	0
595.746	1.812	0
596.246	1.812	0
596.747	1.812	0
597.247	1.812	0
597.748	1.812	0
598.248	1.812	0
598.749	1.812	0
599.249	1.812	0
599.75	1.812	0
600.25	1.812	0
600.751	1.812	0
601.251	1.811	0
601.752	1.811	0
602.252	1.811	0
602.753	1.811	0
603.253	1.811	0
603.754	1.811	0
604.254	1.811	0
604.755	1.811	0
605.255	1.811	0
605.756	1.811	0
606.256	1.811	0
606.757	1.811	0
607.257	1.811	0
607.758	1.811	0
608.258	1.811	0
608.759	1.81	0
609.259	1.81	0
609.76	1.81	0
610.26	1.81	0
610.761	1.81	0
611.261	1.81	0
611.762	1.81	0
612.262	1.81	0
612.763	1.81	0
613.263	1.81	0
613.764	1.81	0
614.264	1.81	0
614.765	1.81	0
615.265	1.81	0
615.766	1.81	0
616.266	1.81	0
616.767	1.809	0
617.267	1.809	0
617.768	1.809	0
618.268	1.809	0
618.769	1.809	0
619.269	1.809	0
619.77	1.809	0
620.27	1.809	0
620.771	1.809	0
621.271	1.809	0
621.772	1.809	0
622.272	1.809	0
622.773	1.809	0
623.273	1.809	0
623.774	1.809	0
624.274	1.809	0
624.775	1.809	0
625.275	1.808	0
625.776	1.808	0
626.276	1.808	0
626.777	1.808	0
627.277	1.808	0
627.778	1.808	0
628.278	1.808	0
628.779	1.808	0
629.279	1.808	0
629.78	1.808	0
630.28	1.808	0
630.781	1.808	0
631.281	1.808	0
631.782	1.808	0
632.282	1.808	0
632.783	1.808	0
633.283	1.808	0
633.784	1.807	0
634.284	1.807	0
634.785	1.807	0
635.285	1.807	0
635.786	1.807	0
636.286	1.807	0
636.787	1.807	0
637.287	1.807	0
637.788	1.807	0
638.288	1.807	0
638.789	1.807	0
639.289	1.807	0
639.79	1.807	0
640.29	1.807	0
640.791	1.807	0
641.291	1.807	0
641.792	1.807	0
642.292	1.807	0
642.793	1.806	0
643.293	1.806	0
643.794	1.806	0
644.294	1.806	0
644.795	1.806	0
645.295	1.806	0
645.796	1.806	0
646.296	1.806	0
646.797	1.806	0
647.297	1.806	0
647.798	1.806	0
648.298	1.806	0
648.799	1.806	0
649.299	1.806	0
649.8	1.806	0
650.3	1.806	0
650.801	1.806	0
651.301	1.806	0
651.802	1.805	0
652.302	1.805	0
652.803	1.805	0
653.303	1.805	0
653.804	1.805	0
654.304	1.805	0
654.805	1.805	0
655.305	1.805	0
655.806	1.805	0
656.306	1.805	0
656.807	1.805	0
657.307	1.805	0
657.808	1.805	0
658.308	1.805	0
658.809	1.805	0
659.309	1.805	0
659.81	1.805	0
660.31	1.805	0
660.811	1.805	0
661.311	1.805	0
661.812	1.804	0
662.312	1.804	0
662.813	1.804	0
663.313	1.804	0
663.814	1.804	0
664.314	1.804	0
664.815	1.804	0
665.315	1.804	0
665.816	1.804	0
666.316	1.804	0
666.817	1.804	0
667.317	1.804	0
667.818	1.804	0
668.318	1.804	0
668.819	1.804	0
669.319	1.804	0
669.82	1.804	0
670.32	1.804	0
670.821	1.804	0
671.321	1.804	0
671.822	1.803	0
672.322	1.803	0
672.823	1.803	0
673.323	1.803	0
673.824	1.803	0
674.324	1.803	0
674.825	1.803	0
675.325	1.803	0
675.826	1.803	0
676.326	1.803	0
676.827	1.803	0
677.327	1.803	0
677.828	1.803	0
678.328	1.803	0
678.829	1.803	0
679.329	1.803	0
679.83	1.803	0
680.33	1.803	0
680.831	1.803	0
681.331	1.803	0
681.832	1.802	0
682.332	1.802	0
682.833	1.802	0
683.333	1.802	0
683.834	1.802	0
684.334	1.802	0
684.835	1.802	0
685.335	1.802	0
685.836	1.802	0
686.336	1.802	0
686.837	1.802	0
687.337	1.802	0
687.838	1.802	0
688.338	1.802	0
688.839	1.802	0
689.339	1.802	0
689.84	1.802	0
690.34	1.802	0
690.841	1.802	0
691.341	1.802	0
691.842	1.802	0
692.342	1.802	0
692.843	1.801	0
693.343	1.801	0
693.844	1.801	0
694.344	1.801	0
694.845	1.801	0
695.345	1.801	0
695.846	1.801	0
696.346	1.801	0
696.847	1.801	0
697.347	1.801	0
697.848	1.801	0
698.348	1.801	0
698.849	1.801	0
699.349	1.801	0
699.85	1.801	0
700.35	1.801	0
700.851	1.801	0
701.351	1.801	0
701.852	1.801	0
702.352	1.801	0
702.853	1.801	0
703.353	1.801	0
703.854	1.801	0
704.354	1.8	0
704.855	1.8	0
705.355	1.8	0
705.856	1.8	0
706.356	1.8	0
706.857	1.8	0
707.357	1.8	0
707.858	1.8	0
708.358	1.8	0
708.859	1.8	0
709.359	1.8	0
709.86	1.8	0
710.36	1.8	0
710.861	1.8	0
711.361	1.8	0
711.862	1.8	0
712.362	1.8	0
712.863	1.8	0
713.363	1.8	0
713.864	1.8	0
714.364	1.8	0
714.865	1.8	0
715.365	1.8	0
715.866	1.8	0
716.366	1.799	0
716.867	1.799	0
717.367	1.799	0
717.868	1.799	0
718.368	1.799	0
718.869	1.799	0
719.369	1.799	0
719.87	1.799	0
720.37	1.799	0
720.871	1.799	0
721.371	1.799	0
721.872	1.799	0
722.372	1.799	0
722.873	1.799	0
723.373	1.799	0
723.874	1.799	0
724.374	1.799	0
724.875	1.799	0
725.375	1.799	0
725.876	1.799	0
726.376	1.799	0
726.877	1.799	0
727.377	1.799	0
727.878	1.799	0
728.378	1.799	0
728.879	1.798	0
729.379	1.798	0
729.88	1.798	0
730.38	1.798	0
730.881	1.798	0
731.381	1.798	0
731.882	1.798	0
732.382	1.798	0
732.883	1.798	0
733.383	1.798	0
733.884	1.798	0
734.384	1.798	0
734.885	1.798	0
735.385	1.798	0
735.886	1.798	0
736.386	1.798	0
736.887	1.798	0
737.387	1.798	0
737.888	1.798	0
738.388	1.798	0
738.889	1.798	0
739.389	1.798	0
739.89	1.798	0
740.39	1.798	0
740.891	1.798	0
741.391	1.798	0
741.892	1.797	0
742.392	1.797	0
742.893	1.797	0
743.393	1.797	0
743.894	1.797	0
744.394	1.797	0
744.895	1.797	0
745.395	1.797	0
745.896	1.797	0
746.396	1.797	0
746.897	1.797	0
747.397	1.797	0
747.898	1.797	0
748.398	1.797	0
748.899	1.797	0
749.399	1.797	0
749.9	1.797	0
750.4	1.797	0
750.901	1.797	0
751.401	1.797	0
751.902	1.797	0
752.402	1.797	0
752.903	1.797	0
753.403	1.797	0
753.904	1.797	0
754.404	1.797	0
754.905	1.797	0
755.405	1.796	0
755.906	1.796	0
756.406	1.796	0
756.907	1.796	0
757.407	1.796	0
757.908	1.796	0
758.408	1.796	0
758.909	1.796	0
759.409	1.796	0
759.91	1.796	0
760.41	1.796	0
760.911	1.796	0
761.411	1.796	0
761.912	1.796	0
762.412	1.796	0
762.913	1.796	0
763.413	1.796	0
763.914	1.796	0
764.414	1.796	0
764.915	1.796	0
765.415	1.796	0
765.916	1.796	0
766.416	1.796	0
766.917	1.796	0
767.417	1.796	0
767.918	1.796	0
768.418	1.796	0
768.919	1.796	0
769.419	1.796	0
769.92	1.795	0
770.42	1.795	0
770.921	1.795	0
771.421	1.795	0
771.922	1.795	0
772.422	1.795	0
772.923	1.795	0
773.423	1.795	0
773.924	1.795	0
774.424	1.795	0
774.925	1.795	0
775.425	1.795	0
775.926	1.795	0
776.426	1.795	0
776.927	1.795	0
777.427	1.795	0
777.928	1.795	0
778.428	1.795	0
778.929	1.795	0
779.429	1.795	0
779.93	1.795	0
780.43	1.795	0
780.931	1.795	0
781.431	1.795	0
781.932	1.795	0
782.432	1.795	0
782.933	1.795	0
783.433	1.795	0
783.934	1.795	0
784.434	1.795	0
784.935	1.794	0
785.435	1.794	0
785.936	1.794	0
786.436	1.794	0
786.937	1.794	0
787.437	1.794	0
787.938	1.794	0
788.438	1.794	0
788.939	1.794	0
789.439	1.794	0
789.94	1.794	0
790.44	1.794	0
790.941	1.794	0
791.441	1.794	0
791.942	1.794	0
792.442	1.794	0
792.943	1.794	0
793.443	1.794	0
793.944	1.794	0
794.444	1.794	0
794.945	1.794	0
795.445	1.794	0
795.946	1.794	0
796.446	1.794	0
796.947	1.794	0
797.447	1.794	0
797.948	1.794	0
798.448	1.794	0
798.949	1.794	0
799.449	1.794	0
799.95	1.794	0
800.45	1.794	0
800.951	1.793	0
801.451	1.793	0
801.952	1.793	0
802.452	1.793	0
802.953	1.793	0
803.453	1.793	0
803.954	1.793	0
804.454	1.793	0
804.955	1.793	0
805.455	1.793	0
805.956	1.793	0
806.456	1.793	0
806.957	1.793	0
807.457	1.793	0
807.958	1.793	0
808.458	1.793	0
808.959	1.793	0
809.459	1.793	0
809.96	1.793	0
810.46	1.793	0
810.961	1.793	0
811.461	1.793	0
811.962	1.793	0
812.462	1.793	0
812.963	1.793	0
813.463	1.793	0
813.964	1.793	0
814.464	1.793	0
814.965	1.793	0
815.465	1.793	0
815.966	1.793	0
816.466	1.793	0
816.967	1.793	0
817.467	1.793	0
817.968	1.793	0
818.468	1.792	0
818.969	1.792	0
819.469	1.792	0
819.97	1.792	0
820.47	1.792	0
820.971	1.792	0
821.471	1.792	0
821.972	1.792	0
822.472	1.792	0
822.973	1.792	0
823.473	1.792	0
823.974	1.792	0
824.474	1.792	0
824.975	1.792	0
825.475	1.792	0
825.976	1.792	0
826.476	1.792	0
826.977	1.792	0
827.477	1.792	0
827.978	1.792	0
828.478	1.792	0
828.979	1.792	0
829.479	1.792	0
829.98	1.792	0
830.48	1.792	0
830.981	1.792	0
831.481	1.792	0
831.982	1.792	0
832.482	1.792	0
832.983	1.792	0
833.483	1.792	0
833.984	1.792	0
834.484	1.792	0
834.985	1.792	0
835.485	1.792	0
835.986	1.792	0
836.486	1.791	0
836.987	1.791	0
837.487	1.791	0
837.988	1.791	0
838.488	1.791	0
838.989	1.791	0
839.489	1.791	0
839.99	1.791	0
840.49	1.791	0
840.991	1.791	0
841.491	1.791	0
841.992	1.791	0
842.492	1.791	0
842.993	1.791	0
843.493	1.791	0
843.994	1.791	0
844.494	1.791	0
844.995	1.791	0
845.495	1.791	0
845.996	1.791	0
846.496	1.791	0
846.997	1.791	0
847.497	1.791	0
847.998	1.791	0
848.498	1.791	0
848.999	1.791	0
849.499	1.791	0
850.0	1.791	0
